{"meta":{"pageSize":10,"count":10,"page":1,"hasMore":true,"total":53,"currency":"USD","checkin":"2026-08-29","checkout":"2026-08-31","nights":2},"_links":{"self":{"href":"https://api.stay22.com/v2/accommodations?address=Tokyo%2C+Japan&checkin=2026-08-29&checkout=2026-08-31&adults=2&children=0&rooms=1&currency=USD&pageSize=10&page=1&lang=en&cluster=false"},"first":{"href":"https://api.stay22.com/v2/accommodations?address=Tokyo%2C+Japan&checkin=2026-08-29&checkout=2026-08-31&adults=2&children=0&rooms=1&currency=USD&pageSize=10&page=1&lang=en&cluster=false"},"next":{"href":"https://api.stay22.com/v2/accommodations?address=Tokyo%2C+Japan&checkin=2026-08-29&checkout=2026-08-31&adults=2&children=0&rooms=1&currency=USD&pageSize=10&page=2&lang=en&cluster=false"}},"results":[{"id":"16338247.0000","url":"https://www.stay22.com/allez/roam/usds_16338247.0000?checkin=2026-08-29&checkout=2026-08-31&aid=stay22&adults=2&children=0&rooms=1&source=direct&medium=api","suppliers":{"booking":{"id":"1611650","link":"https://www.stay22.com/allez/booking/1611650?checkin=2026-08-29&checkout=2026-08-31&aid=stay22&adults=2&children=0&rooms=1&source=direct&medium=api","media":{"logoSquare":"https://r2.stay22.com/2025_booking.png"},"price":{"total":478}}},"name":"Kagiya","type":"Ryokan","location":{"address":"Kano 508, Minamiizu JP, 4150304","coordinates":{"lat":34.6492,"lng":138.85567},"distanceInMeters":null},"rating":{"value":9.1,"hotelStars":3,"count":23},"capacity":{"guests":5,"bedrooms":1,"beds":5,"bathrooms":1},"policies":{"instantBook":true,"freeCancellation":true},"media":{"thumbnail":"https://q-xx.bstatic.com/xdata/images/hotel/max500/216100134.jpg?k=e13d392db646bf11be22589c28ee323f8e7051b54ae1e1066091eab015be2767&o=&a=1607597"}},{"id":"fb949ff1e70a89eb61e926cbfe0a77ce.0000","url":"https://www.stay22.com/allez/roam/usds_fb949ff1e70a89eb61e926cbfe0a77ce.0000?checkin=2026-08-29&checkout=2026-08-31&aid=stay22&adults=2&children=0&rooms=1&source=direct&medium=api","suppliers":{"booking":{"id":"11726332","link":"https://www.stay22.com/allez/booking/11726332?checkin=2026-08-29&checkout=2026-08-31&aid=stay22&adults=2&children=0&rooms=1&source=direct&medium=api","media":{"logoSquare":"https://r2.stay22.com/2025_booking.png"},"price":{"total":127}}},"name":"GLOCE 南伊豆アウトドアベースキャンプ（ドミトリー）","type":"Accommodation","location":{"address":"下賀茂６０４, Minamiizu Japan, 415-0303","coordinates":{"lat":34.643421,"lng":138.868986},"distanceInMeters":null},"rating":{"value":8.2,"hotelStars":null,"count":5},"capacity":{"guests":3,"bedrooms":1,"beds":3,"bathrooms":1},"policies":{"instantBook":true,"freeCancellation":true},"media":{"thumbnail":"https://q-xx.bstatic.com/xdata/images/hotel/max500/569210944.jpg?k=71894b5beea3e87864aad5ce8a108977c1e094db04f6b8fdc111c7ba4dff8dae&o=&a=1607597"}},{"id":"920bbc0719fc513660b5f2008c408ba1.0000","url":"https://www.stay22.com/allez/roam/usds_920bbc0719fc513660b5f2008c408ba1.0000?checkin=2026-08-29&checkout=2026-08-31&aid=stay22&adults=2&children=0&rooms=1&source=direct&medium=api","suppliers":{"booking":{"id":"13712872","link":"https://www.stay22.com/allez/booking/13712872?checkin=2026-08-29&checkout=2026-08-31&aid=stay22&adults=2&children=0&rooms=1&source=direct&medium=api","media":{"logoSquare":"https://r2.stay22.com/2025_booking.png"},"price":{"total":352}}},"name":"ホテル河内屋","type":"Accommodation","location":{"address":"下賀茂４３６−１, Minamiizu Japan, 415-0303","coordinates":{"lat":34.648528,"lng":138.868387},"distanceInMeters":null},"rating":{"value":8.5,"hotelStars":3,"count":2},"capacity":{"guests":8,"bedrooms":1,"beds":8,"bathrooms":1},"policies":{"instantBook":true,"freeCancellation":true},"media":{"thumbnail":"https://q-xx.bstatic.com/xdata/images/hotel/max500/670782516.jpg?k=df76ba70a1575049e861ab21ef03e0ab6e7ec6f3da3250e4564427ad2ce8f6ba&o=&a=1607597"}},{"id":"32149781.0000","url":"https://www.stay22.com/allez/roam/usds_32149781.0000?checkin=2026-08-29&checkout=2026-08-31&aid=stay22&adults=2&children=0&rooms=1&source=direct&medium=api","suppliers":{"booking":{"id":"7483765","link":"https://www.stay22.com/allez/booking/7483765?checkin=2026-08-29&checkout=2026-08-31&aid=stay22&adults=2&children=0&rooms=1&source=direct&medium=api","media":{"logoSquare":"https://r2.stay22.com/2025_booking.png"},"price":{"total":783}}},"name":"Hana No Omotenashi Nanraku","type":"Ryokan","location":{"address":"130-1 Shimogamo, Minamiizu JP, 4150303","coordinates":{"lat":34.65011,"lng":138.8687},"distanceInMeters":null},"rating":{"value":8.4,"hotelStars":4,"count":11},"capacity":{"guests":7,"bedrooms":1,"beds":7,"bathrooms":1},"policies":{"instantBook":true,"freeCancellation":true},"media":{"thumbnail":"https://q-xx.bstatic.com/xdata/images/hotel/max500/831674939.jpg?k=76680a5c3111789c1c34a7516438996e781e05b83a487911975020024b0bd095&o=&a=1607597"}},{"id":"e7d028750b2d859f3d97154467d5450a.0000","url":"https://www.stay22.com/allez/roam/usds_e7d028750b2d859f3d97154467d5450a.0000?checkin=2026-08-29&checkout=2026-08-31&aid=stay22&adults=2&children=0&rooms=1&source=direct&medium=api","suppliers":{"booking":{"id":"12907947","link":"https://www.stay22.com/allez/booking/12907947?checkin=2026-08-29&checkout=2026-08-31&aid=stay22&adults=2&children=0&rooms=1&source=direct&medium=api","media":{"logoSquare":"https://r2.stay22.com/2025_booking.png"},"price":{"total":371}}},"name":"Hoshizora Terrace Minamiizu - Vacation STAY 08878v","type":"Accommodation","location":{"address":"572-13 Shimogamo Minamiizucho Hoshizora Terrace Minamiizu, Minamiizu Japan, 415-0303","coordinates":{"lat":34.645009,"lng":138.872187},"distanceInMeters":null},"rating":{"value":8.2,"hotelStars":3,"count":9},"capacity":{"guests":5,"bedrooms":2,"beds":3,"bathrooms":1},"policies":{"instantBook":true,"freeCancellation":true},"media":{"thumbnail":"https://q-xx.bstatic.com/xdata/images/hotel/max500/603009633.jpg?k=474e7919932df4b1f1dc9bd6aead38d7049a5c2b97e3fa4809e46d89d17adc7e&o=&a=1607597"}},{"id":"17440178.0000","url":"https://www.stay22.com/allez/roam/usds_17440178.0000?checkin=2026-08-29&checkout=2026-08-31&aid=stay22&adults=2&children=0&rooms=1&source=direct&medium=api","suppliers":{"booking":{"id":"410687","link":"https://www.stay22.com/allez/booking/410687?checkin=2026-08-29&checkout=2026-08-31&aid=stay22&adults=2&children=0&rooms=1&source=direct&medium=api","media":{"logoSquare":"https://r2.stay22.com/2025_booking.png"},"price":{"total":237}}},"name":"Pension Yumigahama","type":"Accommodation","location":{"address":"Minato 896-13, Minamiizu, 415-0152, Japan","coordinates":{"lat":34.635476,"lng":138.889457},"distanceInMeters":null},"rating":{"value":9,"hotelStars":2,"count":35},"capacity":{"guests":5,"bedrooms":1,"beds":6,"bathrooms":1},"policies":{"instantBook":true,"freeCancellation":true},"media":{"thumbnail":"https://q-xx.bstatic.com/xdata/images/hotel/max500/339558716.jpg?k=4b557023a9ae3bc1236c05e430d129efbf2203851f13f600cb83ba78cbeb07e0&o=&a=1607597"}},{"id":"16008609.0000","url":"https://www.stay22.com/allez/roam/usds_16008609.0000?checkin=2026-08-29&checkout=2026-08-31&aid=stay22&adults=2&children=0&rooms=1&source=direct&medium=api","suppliers":{"booking":{"id":"3235387","link":"https://www.stay22.com/allez/booking/3235387?checkin=2026-08-29&checkout=2026-08-31&aid=stay22&adults=2&children=0&rooms=1&source=direct&medium=api","media":{"logoSquare":"https://r2.stay22.com/2025_booking.png"},"price":{"total":144}}},"name":"Guesthouse Sora - Hostel","type":"Hostel","location":{"address":"576-1 Minato, Minamiizu-cho, Minamiizu JP, 4150152","coordinates":{"lat":34.63853,"lng":138.88791},"distanceInMeters":null},"rating":{"value":9.1,"hotelStars":null,"count":191},"capacity":{"guests":4,"bedrooms":1,"beds":5,"bathrooms":1},"policies":{"instantBook":true,"freeCancellation":true},"media":{"thumbnail":"https://q-xx.bstatic.com/xdata/images/hotel/max500/183623003.jpg?k=1a238a3a39bce9d125f276f902f2382653e35b8cb8a0a98ae283ec9351bd1c90&o=&a=1607597"}},{"id":"478838309ca9cc376bd7598ad7b28942.0000","url":"https://www.stay22.com/allez/roam/usds_478838309ca9cc376bd7598ad7b28942.0000?checkin=2026-08-29&checkout=2026-08-31&aid=stay22&adults=2&children=0&rooms=1&source=direct&medium=api","suppliers":{"booking":{"id":"14408061","link":"https://www.stay22.com/allez/booking/14408061?checkin=2026-08-29&checkout=2026-08-31&aid=stay22&adults=2&children=0&rooms=1&source=direct&medium=api","media":{"logoSquare":"https://r2.stay22.com/2025_booking.png"},"price":{"total":1596}}},"name":"一棟貸別荘Seaside Villa! 最大12名 弓ヶ浜海水浴場徒歩5分!ペット可","type":"Accommodation","location":{"address":"989 Minato, Kamo District, Minami Izu, Shizuoka, Japan, Minamiizu Japan, 415-0152","coordinates":{"lat":34.637161,"lng":138.888618},"distanceInMeters":null},"rating":{"value":9.3,"hotelStars":4,"count":3},"capacity":{"guests":12,"bedrooms":4,"beds":11,"bathrooms":1},"policies":{"instantBook":true,"freeCancellation":false},"media":{"thumbnail":"https://q-xx.bstatic.com/xdata/images/hotel/max500/889600462.jpg?k=45246404c3dc0c8dadae689bac63d5067ee8dc0d9fd356748d3e6980afcff844&o=&a=1607597"}},{"id":"e7efe5fc827b1f8f0788103f855a3f03.0000","url":"https://www.stay22.com/allez/roam/usds_e7efe5fc827b1f8f0788103f855a3f03.0000?checkin=2026-08-29&checkout=2026-08-31&aid=stay22&adults=2&children=0&rooms=1&source=direct&medium=api","suppliers":{"booking":{"id":"10077339","link":"https://www.stay22.com/allez/booking/10077339?checkin=2026-08-29&checkout=2026-08-31&aid=stay22&adults=2&children=0&rooms=1&source=direct&medium=api","media":{"logoSquare":"https://r2.stay22.com/2025_booking.png"},"price":{"total":1093}}},"name":"village yumigahama - Vacation STAY 49355v","type":"Accommodation","location":{"address":"1638 Minato Minamiizucho village yumigahama, Minato Japan, 415-0152","coordinates":{"lat":34.641361,"lng":138.890573},"distanceInMeters":null},"rating":{"value":3.5,"hotelStars":3,"count":2},"capacity":{"guests":15,"bedrooms":2,"beds":15,"bathrooms":1},"policies":{"instantBook":true,"freeCancellation":true},"media":{"thumbnail":"https://q-xx.bstatic.com/xdata/images/hotel/max500/460103852.jpg?k=95bb73b9e65c323136ce8eddf4a57d58ae3883fb9602bff6b9d998f28f96432b&o=&a=1607597"}},{"id":"b6ab4ddada9854f812df876f1dadced5.0000","url":"https://www.stay22.com/allez/roam/usds_b6ab4ddada9854f812df876f1dadced5.0000?checkin=2026-08-29&checkout=2026-08-31&aid=stay22&adults=2&children=0&rooms=1&source=direct&medium=api","suppliers":{"booking":{"id":"10077341","link":"https://www.stay22.com/allez/booking/10077341?checkin=2026-08-29&checkout=2026-08-31&aid=stay22&adults=2&children=0&rooms=1&source=direct&medium=api","media":{"logoSquare":"https://r2.stay22.com/2025_booking.png"},"price":{"total":893}}},"name":"village yumigahama - Vacation STAY 49352v","type":"Accommodation","location":{"address":"1638 Minato Minamiizucho village yumigahama, Minato Japan, 415-0152","coordinates":{"lat":34.641361,"lng":138.890573},"distanceInMeters":null},"rating":{"value":8,"hotelStars":3,"count":1},"capacity":{"guests":12,"bedrooms":2,"beds":12,"bathrooms":1},"policies":{"instantBook":true,"freeCancellation":true},"media":{"thumbnail":"https://q-xx.bstatic.com/xdata/images/hotel/max500/460104336.jpg?k=1f79fa1dfea54d0d350b26847342fdbffccfea826ec7e7e6d72cf86bdb83f8b1&o=&a=1607597"}}]}